%!PS-Adobe-3.0 EPSF-3.0
%%Creator: cairo 1.15.12 (http://cairographics.org)
%%CreationDate: Sun Dec 29 14:13:13 2019
%%Pages: 1
%%DocumentData: Clean7Bit
%%LanguageLevel: 2
%%BoundingBox: 10 0 374 384
%%EndComments
%%BeginProlog
50 dict begin
/q { gsave } bind def
/Q { grestore } bind def
/cm { 6 array astore concat } bind def
/w { setlinewidth } bind def
/J { setlinecap } bind def
/j { setlinejoin } bind def
/M { setmiterlimit } bind def
/d { setdash } bind def
/m { moveto } bind def
/l { lineto } bind def
/c { curveto } bind def
/h { closepath } bind def
/re { exch dup neg 3 1 roll 5 3 roll moveto 0 rlineto
      0 exch rlineto 0 rlineto closepath } bind def
/S { stroke } bind def
/f { fill } bind def
/f* { eofill } bind def
/n { newpath } bind def
/W { clip } bind def
/W* { eoclip } bind def
/BT { } bind def
/ET { } bind def
/BDC { mark 3 1 roll /BDC pdfmark } bind def
/EMC { mark /EMC pdfmark } bind def
/cairo_store_point { /cairo_point_y exch def /cairo_point_x exch def } def
/Tj { show currentpoint cairo_store_point } bind def
/TJ {
  {
    dup
    type /stringtype eq
    { show } { -0.001 mul 0 cairo_font_matrix dtransform rmoveto } ifelse
  } forall
  currentpoint cairo_store_point
} bind def
/cairo_selectfont { cairo_font_matrix aload pop pop pop 0 0 6 array astore
    cairo_font exch selectfont cairo_point_x cairo_point_y moveto } bind def
/Tf { pop /cairo_font exch def /cairo_font_matrix where
      { pop cairo_selectfont } if } bind def
/Td { matrix translate cairo_font_matrix matrix concatmatrix dup
      /cairo_font_matrix exch def dup 4 get exch 5 get cairo_store_point
      /cairo_font where { pop cairo_selectfont } if } bind def
/Tm { 2 copy 8 2 roll 6 array astore /cairo_font_matrix exch def
      cairo_store_point /cairo_font where { pop cairo_selectfont } if } bind def
/g { setgray } bind def
/rg { setrgbcolor } bind def
/d1 { setcachedevice } bind def
/cairo_data_source {
  CairoDataIndex CairoData length lt
    { CairoData CairoDataIndex get /CairoDataIndex CairoDataIndex 1 add def }
    { () } ifelse
} def
/cairo_flush_ascii85_file { cairo_ascii85_file status { cairo_ascii85_file flushfile } if } def
/cairo_image { image cairo_flush_ascii85_file } def
/cairo_imagemask { imagemask cairo_flush_ascii85_file } def
%%EndProlog
%%BeginSetup
%%EndSetup
%%Page: 1 1
%%BeginPageSetup
%%PageBoundingBox: 10 0 374 384
%%EndPageSetup
q 10 0 364 384 rectclip
1 0 0 -1 0 384 cm q
0 g
366.301 369 m 349.848 369 l 349.848 130.152 l 349.848 119.035 340.805 109.992
 329.688 109.992 c 292.922 109.992 l 281.805 109.992 272.758 119.035 272.758
 130.152 c 272.758 369 l 230.988 369 l 230.988 238.367 l 230.988 227.25 
221.945 218.207 210.828 218.207 c 174.059 218.207 l 162.941 218.207 153.898
 227.254 153.898 238.367 c 153.898 369 l 112.129 369 l 112.129 301.348 l
 112.129 290.23 103.086 281.184 91.969 281.184 c 55.199 281.184 l 44.082
 281.184 35.039 290.23 35.039 301.348 c 35.039 369 l 17.699 369 l 13.559
 369 10.199 372.359 10.199 376.5 c 10.199 380.641 13.559 384 17.699 384 
c 366.301 384 l 370.441 384 373.801 380.641 373.801 376.5 c 373.801 372.359
 370.441 369 366.301 369 c h
97.129 369 m 50.035 369 l 50.035 301.348 l 50.035 298.5 52.352 296.184 
55.199 296.184 c 91.965 296.184 l 94.812 296.184 97.129 298.5 97.129 301.348
 c h
215.988 369 m 168.898 369 l 168.898 238.367 l 168.898 235.523 171.215 233.207
 174.059 233.207 c 210.828 233.207 l 213.672 233.207 215.988 235.523 215.988
 238.367 c h
334.848 369 m 287.758 369 l 287.758 130.152 l 287.758 127.305 290.074 124.992
 292.922 124.992 c 329.688 124.992 l 332.535 124.992 334.848 127.305 334.848
 130.152 c h
334.848 369 m f
349.832 7.887 m 349.938 5.84 349.215 3.758 347.652 2.195 c 346.09 0.633
 344.008 -0.086 341.961 0.02 c 341.84 0.012 341.723 0 341.598 0 c 296.223
 0 l 292.082 0 288.723 3.359 288.723 7.5 c 288.723 11.641 292.082 15 296.223
 15 c 324.242 15 l 250.098 89.145 l 222.141 61.184 l 220.734 59.777 218.824
 58.988 216.836 58.988 c 214.848 58.988 212.938 59.777 211.531 61.184 c 
76.707 196.012 l 73.777 198.941 73.777 203.688 76.707 206.617 c 78.172 208.082
 80.09 208.812 82.008 208.812 c 83.93 208.812 85.848 208.082 87.312 206.617
 c 216.836 77.094 l 244.797 105.051 l 247.727 107.98 252.473 107.98 255.402
 105.051 c 334.848 25.605 l 334.848 50.965 l 334.848 55.105 338.207 58.465
 342.348 58.465 c 346.492 58.465 349.848 55.105 349.848 50.965 c 349.848
 8.25 l 349.848 8.129 349.836 8.008 349.832 7.887 c h
349.832 7.887 m f
64.23 227.484 m 64.23 231.625 60.871 234.984 56.73 234.984 c 52.586 234.984
 49.23 231.625 49.23 227.484 c 49.23 223.34 52.586 219.984 56.73 219.984
 c 60.871 219.984 64.23 223.34 64.23 227.484 c h
64.23 227.484 m f
Q Q
showpage
%%Trailer
end
%%EOF
