%!PS-Adobe-3.0 EPSF-3.0
%%Creator: cairo 1.15.12 (http://cairographics.org)
%%CreationDate: Sun Dec 29 14:13:13 2019
%%Pages: 1
%%DocumentData: Clean7Bit
%%LanguageLevel: 2
%%BoundingBox: 15 0 369 384
%%EndComments
%%BeginProlog
50 dict begin
/q { gsave } bind def
/Q { grestore } bind def
/cm { 6 array astore concat } bind def
/w { setlinewidth } bind def
/J { setlinecap } bind def
/j { setlinejoin } bind def
/M { setmiterlimit } bind def
/d { setdash } bind def
/m { moveto } bind def
/l { lineto } bind def
/c { curveto } bind def
/h { closepath } bind def
/re { exch dup neg 3 1 roll 5 3 roll moveto 0 rlineto
      0 exch rlineto 0 rlineto closepath } bind def
/S { stroke } bind def
/f { fill } bind def
/f* { eofill } bind def
/n { newpath } bind def
/W { clip } bind def
/W* { eoclip } bind def
/BT { } bind def
/ET { } bind def
/BDC { mark 3 1 roll /BDC pdfmark } bind def
/EMC { mark /EMC pdfmark } bind def
/cairo_store_point { /cairo_point_y exch def /cairo_point_x exch def } def
/Tj { show currentpoint cairo_store_point } bind def
/TJ {
  {
    dup
    type /stringtype eq
    { show } { -0.001 mul 0 cairo_font_matrix dtransform rmoveto } ifelse
  } forall
  currentpoint cairo_store_point
} bind def
/cairo_selectfont { cairo_font_matrix aload pop pop pop 0 0 6 array astore
    cairo_font exch selectfont cairo_point_x cairo_point_y moveto } bind def
/Tf { pop /cairo_font exch def /cairo_font_matrix where
      { pop cairo_selectfont } if } bind def
/Td { matrix translate cairo_font_matrix matrix concatmatrix dup
      /cairo_font_matrix exch def dup 4 get exch 5 get cairo_store_point
      /cairo_font where { pop cairo_selectfont } if } bind def
/Tm { 2 copy 8 2 roll 6 array astore /cairo_font_matrix exch def
      cairo_store_point /cairo_font where { pop cairo_selectfont } if } bind def
/g { setgray } bind def
/rg { setrgbcolor } bind def
/d1 { setcachedevice } bind def
/cairo_data_source {
  CairoDataIndex CairoData length lt
    { CairoData CairoDataIndex get /CairoDataIndex CairoDataIndex 1 add def }
    { () } ifelse
} def
/cairo_flush_ascii85_file { cairo_ascii85_file status { cairo_ascii85_file flushfile } if } def
/cairo_image { image cairo_flush_ascii85_file } def
/cairo_imagemask { imagemask cairo_flush_ascii85_file } def
%%EndProlog
%%BeginSetup
%%EndSetup
%%Page: 1 1
%%BeginPageSetup
%%PageBoundingBox: 15 0 369 384
%%EndPageSetup
q 15 0 354 384 rectclip
1 0 0 -1 0 384 cm q
0 g
98.828 60.09 m 52.621 60.09 15.031 97.68 15.031 143.887 c 15.031 190.09
 52.621 227.68 98.828 227.68 c 145.031 227.68 182.621 190.09 182.621 143.887
 c 182.621 97.68 145.031 60.09 98.828 60.09 c h
98.828 216.41 m 58.84 216.41 26.305 183.875 26.305 143.887 c 26.305 103.898
 58.836 71.363 98.828 71.363 c 138.816 71.363 171.348 103.898 171.348 143.887
 c 171.348 183.875 138.816 216.41 98.828 216.41 c h
98.828 216.41 m f
123.93 131.484 m 127.039 131.484 129.562 128.961 129.562 125.852 c 129.562
 119.84 l 129.562 106.785 118.945 96.164 105.891 96.164 c 105.516 96.164
 l 105.516 83.766 l 105.516 80.652 102.992 78.129 99.879 78.129 c 96.766
 78.129 94.242 80.652 94.242 83.766 c 94.242 96.297 l 80.762 97.621 70.195
 109.02 70.195 122.844 c 70.195 137.555 82.16 149.523 96.871 149.523 c 102.887
 149.523 l 111.379 149.523 118.293 156.434 118.293 164.93 c 118.293 173.426
 111.379 180.336 102.887 180.336 c 93.867 180.336 l 87.027 180.336 81.465
 174.773 81.465 167.934 c 81.465 164.824 78.941 162.301 75.832 162.301 c
 72.719 162.301 70.195 164.824 70.195 167.934 c 70.195 180.988 80.812 191.609
 93.867 191.609 c 94.242 191.609 l 94.242 204.008 l 94.242 207.121 96.766
 209.645 99.879 209.645 c 102.992 209.645 105.516 207.121 105.516 204.008
 c 105.516 191.477 l 118.996 190.152 129.562 178.754 129.562 164.93 c 129.562
 150.219 117.598 138.25 102.887 138.25 c 96.871 138.25 l 88.379 138.25 81.465
 131.34 81.465 122.844 c 81.465 114.348 88.379 107.438 96.871 107.438 c 
105.891 107.438 l 112.73 107.438 118.293 113 118.293 119.84 c 118.293 125.852
 l 118.293 128.961 120.816 131.484 123.93 131.484 c h
123.93 131.484 m f
189.012 275.781 m 192.121 275.781 194.648 273.258 194.648 270.145 c 194.648
 234.07 l 194.648 230.957 192.121 228.434 189.012 228.434 c 32.691 228.434
 l 29.578 228.434 27.055 230.957 27.055 234.07 c 27.055 264.508 l 20.668
 264.508 l 17.555 264.508 15.031 267.031 15.031 270.145 c 15.031 306.219
 l 15.031 309.328 17.555 311.855 20.668 311.855 c 27.055 311.855 l 27.055
 336.652 l 20.668 336.652 l 17.555 336.652 15.031 339.18 15.031 342.289 
c 15.031 378.363 l 15.031 381.477 17.555 384 20.668 384 c 176.988 384 l 
180.098 384 182.621 381.477 182.621 378.363 c 182.621 347.926 l 189.012 
347.926 l 192.121 347.926 194.648 345.402 194.648 342.289 c 194.648 306.215
 l 194.648 303.105 192.121 300.582 189.012 300.582 c 182.621 300.582 l 182.621
 275.781 l h
26.305 300.582 m 26.305 275.781 l 171.348 275.781 l 171.348 300.582 l h
171.348 372.727 m 26.305 372.727 l 26.305 347.926 l 171.348 347.926 l h
183.375 311.855 m 183.375 336.652 l 38.328 336.652 l 38.328 311.855 l h
38.328 264.508 m 38.328 239.707 l 183.375 239.707 l 183.375 264.508 l h
38.328 264.508 m f
367.715 104.23 m 283.543 2.023 l 281.324 -0.672 277.062 -0.672 274.844 
2.023 c 190.672 104.23 l 187.699 107.836 190.359 113.449 195.023 113.449
 c 231.473 113.449 l 231.473 288.18 l 231.473 291.293 233.996 293.816 237.109
 293.816 c 321.277 293.816 l 324.391 293.816 326.914 291.293 326.914 288.18
 c 326.914 264.508 l 326.914 261.395 324.391 258.871 321.277 258.871 c 318.168
 258.871 315.645 261.395 315.645 264.508 c 315.645 282.543 l 242.746 282.543
 l 242.746 107.812 l 242.746 104.699 240.223 102.176 237.109 102.176 c 206.969
 102.176 l 279.195 14.473 l 351.422 102.176 l 321.281 102.176 l 318.168 
102.176 315.645 104.699 315.645 107.812 c 315.645 237.828 l 315.645 240.941
 318.168 243.465 321.281 243.465 c 324.391 243.465 326.914 240.941 326.914
 237.828 c 326.914 113.449 l 363.367 113.449 l 368.027 113.449 370.688 107.84
 367.715 104.23 c h
367.715 104.23 m f
321.281 312.605 m 237.109 312.605 l 233.996 312.605 231.473 315.129 231.473
 318.242 c 231.473 321.355 233.996 323.879 237.109 323.879 c 321.277 323.879
 l 324.391 323.879 326.914 321.355 326.914 318.242 c 326.914 315.129 324.391
 312.605 321.281 312.605 c h
321.281 312.605 m f
321.281 342.664 m 237.109 342.664 l 233.996 342.664 231.473 345.191 231.473
 348.301 c 231.473 351.414 233.996 353.938 237.109 353.938 c 321.277 353.938
 l 324.391 353.938 326.914 351.414 326.914 348.301 c 326.914 345.191 324.391
 342.664 321.281 342.664 c h
321.281 342.664 m f
321.281 372.727 m 237.109 372.727 l 233.996 372.727 231.473 375.25 231.473
 378.363 c 231.473 381.477 233.996 384 237.109 384 c 321.277 384 l 324.391
 384 326.914 381.477 326.914 378.363 c 326.914 375.25 324.391 372.727 321.281
 372.727 c h
321.281 372.727 m f
Q Q
showpage
%%Trailer
end
%%EOF
