%!PS-Adobe-3.0 EPSF-3.0
%%Creator: cairo 1.15.12 (http://cairographics.org)
%%CreationDate: Sun Dec 29 14:13:13 2019
%%Pages: 1
%%DocumentData: Clean7Bit
%%LanguageLevel: 2
%%BoundingBox: 34 0 350 384
%%EndComments
%%BeginProlog
50 dict begin
/q { gsave } bind def
/Q { grestore } bind def
/cm { 6 array astore concat } bind def
/w { setlinewidth } bind def
/J { setlinecap } bind def
/j { setlinejoin } bind def
/M { setmiterlimit } bind def
/d { setdash } bind def
/m { moveto } bind def
/l { lineto } bind def
/c { curveto } bind def
/h { closepath } bind def
/re { exch dup neg 3 1 roll 5 3 roll moveto 0 rlineto
      0 exch rlineto 0 rlineto closepath } bind def
/S { stroke } bind def
/f { fill } bind def
/f* { eofill } bind def
/n { newpath } bind def
/W { clip } bind def
/W* { eoclip } bind def
/BT { } bind def
/ET { } bind def
/BDC { mark 3 1 roll /BDC pdfmark } bind def
/EMC { mark /EMC pdfmark } bind def
/cairo_store_point { /cairo_point_y exch def /cairo_point_x exch def } def
/Tj { show currentpoint cairo_store_point } bind def
/TJ {
  {
    dup
    type /stringtype eq
    { show } { -0.001 mul 0 cairo_font_matrix dtransform rmoveto } ifelse
  } forall
  currentpoint cairo_store_point
} bind def
/cairo_selectfont { cairo_font_matrix aload pop pop pop 0 0 6 array astore
    cairo_font exch selectfont cairo_point_x cairo_point_y moveto } bind def
/Tf { pop /cairo_font exch def /cairo_font_matrix where
      { pop cairo_selectfont } if } bind def
/Td { matrix translate cairo_font_matrix matrix concatmatrix dup
      /cairo_font_matrix exch def dup 4 get exch 5 get cairo_store_point
      /cairo_font where { pop cairo_selectfont } if } bind def
/Tm { 2 copy 8 2 roll 6 array astore /cairo_font_matrix exch def
      cairo_store_point /cairo_font where { pop cairo_selectfont } if } bind def
/g { setgray } bind def
/rg { setrgbcolor } bind def
/d1 { setcachedevice } bind def
/cairo_data_source {
  CairoDataIndex CairoData length lt
    { CairoData CairoDataIndex get /CairoDataIndex CairoDataIndex 1 add def }
    { () } ifelse
} def
/cairo_flush_ascii85_file { cairo_ascii85_file status { cairo_ascii85_file flushfile } if } def
/cairo_image { image cairo_flush_ascii85_file } def
/cairo_imagemask { imagemask cairo_flush_ascii85_file } def
%%EndProlog
%%BeginSetup
%%EndSetup
%%Page: 1 1
%%BeginPageSetup
%%PageBoundingBox: 34 0 350 384
%%EndPageSetup
q 34 0 316 384 rectclip
1 0 0 -1 0 384 cm q
0 g
192 30.008 m 187.848 30.008 184.508 33.352 184.508 37.5 c 184.508 41.359
 187.41 44.574 191.25 44.953 c 195.695 45.395 199.492 41.934 199.492 37.5
 c 199.492 33.348 196.148 30.008 192 30.008 c h
192 30.008 m f
342 45 m 321.324 45 304.5 28.176 304.5 7.5 c 304.5 3.359 301.141 0 297 
0 c 87 0 l 82.859 0 79.5 3.359 79.5 7.5 c 79.5 28.176 62.676 45 42 45 c 
37.859 45 34.5 48.359 34.5 52.5 c 34.5 174.891 l 34.5 270.273 96.672 355.742
 189.848 383.684 c 190.547 383.895 191.273 384 192 384 c 192.727 384 193.453
 383.895 194.156 383.684 c 285.312 356.34 349.5 272.363 349.5 174.891 c 
349.5 52.5 l 349.5 48.359 346.141 45 342 45 c h
334.5 174.891 m 334.5 264.477 277.336 342.062 192 368.656 c 107.348 342.273
 49.5 263.988 49.5 174.891 c 49.5 59.465 l 72.457 56.168 90.668 37.957 93.965
 15 c 290.035 15 l 293.332 37.957 311.543 56.168 334.5 59.465 c h
334.5 174.891 m f
315.008 69.367 m 299.367 62.52 286.98 50.133 280.133 34.492 c 278.938 31.762
 276.242 30 273.262 30 c 221.984 30 l 217.844 30 214.484 33.359 214.484 
37.5 c 214.484 41.641 217.844 45 221.984 45 c 268.52 45 l 276.445 60.512
 288.988 73.055 304.5 80.98 c 304.5 174.891 l 304.5 248.289 260.438 311.621
 192 336.969 c 123.562 311.617 79.5 248.289 79.5 174.891 c 79.5 80.98 l 
95.012 73.055 107.555 60.512 115.48 45 c 162.016 45 l 166.156 45 169.516
 41.641 169.516 37.5 c 169.516 33.359 166.156 30 162.016 30 c 110.738 30
 l 107.758 30 105.062 31.762 103.867 34.492 c 97.02 50.133 84.633 62.52 
68.992 69.367 c 66.262 70.562 64.5 73.258 64.5 76.238 c 64.5 174.891 l 64.5
 255.301 114.234 325.383 189.496 352.016 c 190.309 352.305 191.152 352.445
 192 352.445 c 192.848 352.445 193.691 352.305 194.504 352.016 c 269.703
 325.406 319.5 255.367 319.5 174.891 c 319.5 76.238 l 319.5 73.258 317.738
 70.562 315.008 69.367 c h
315.008 69.367 m f
192 109.5 m 154.781 109.5 124.5 139.781 124.5 177 c 124.5 214.219 154.781
 244.5 192 244.5 c 229.219 244.5 259.5 214.219 259.5 177 c 259.5 139.781
 229.219 109.5 192 109.5 c h
192 229.5 m 163.051 229.5 139.5 205.949 139.5 177 c 139.5 148.051 163.051
 124.5 192 124.5 c 220.949 124.5 244.5 148.051 244.5 177 c 244.5 205.949
 220.949 229.5 192 229.5 c h
192 229.5 m f
227.305 156.695 m 224.375 153.77 219.625 153.77 216.695 156.695 c 184.5
 188.895 l 174.805 179.195 l 171.875 176.27 167.125 176.27 164.195 179.195
 c 161.266 182.125 161.266 186.875 164.195 189.805 c 179.195 204.805 l 180.66
 206.266 182.578 207 184.5 207 c 186.422 207 188.34 206.266 189.805 204.805
 c 227.305 167.305 l 230.23 164.375 230.23 159.625 227.305 156.695 c h
227.305 156.695 m f
Q Q
showpage
%%Trailer
end
%%EOF
